C:\Users\Acer\source\repos\DailyUpdate\DailyUpdate.UI\DailyUpdateUI\dist\out-tsc\src\app\app.component.js
C:\Users\Acer\source\repos\DailyUpdate\DailyUpdate.UI\DailyUpdateUI\dist\out-tsc\src\app\app.component.js.map
C:\Users\Acer\source\repos\DailyUpdate\DailyUpdate.UI\DailyUpdateUI\dist\out-tsc\src\BackEnd\dashboard\dashboard.component.js
C:\Users\Acer\source\repos\DailyUpdate\DailyUpdate.UI\DailyUpdateUI\dist\out-tsc\src\BackEnd\dashboard\dashboard.component.js.map
C:\Users\Acer\source\repos\DailyUpdate\DailyUpdate.UI\DailyUpdateUI\dist\out-tsc\src\Model\User.model.js
C:\Users\Acer\source\repos\DailyUpdate\DailyUpdate.UI\DailyUpdateUI\dist\out-tsc\src\Model\User.model.js.map
C:\Users\Acer\source\repos\DailyUpdate\DailyUpdate.UI\DailyUpdateUI\dist\out-tsc\src\Model\Project.model.js
C:\Users\Acer\source\repos\DailyUpdate\DailyUpdate.UI\DailyUpdateUI\dist\out-tsc\src\Model\Project.model.js.map
C:\Users\Acer\source\repos\DailyUpdate\DailyUpdate.UI\DailyUpdateUI\dist\out-tsc\src\Services\project.service.js
C:\Users\Acer\source\repos\DailyUpdate\DailyUpdate.UI\DailyUpdateUI\dist\out-tsc\src\Services\project.service.js.map
C:\Users\Acer\source\repos\DailyUpdate\DailyUpdate.UI\DailyUpdateUI\dist\out-tsc\src\Services\user.service.js
C:\Users\Acer\source\repos\DailyUpdate\DailyUpdate.UI\DailyUpdateUI\dist\out-tsc\src\Services\user.service.js.map
C:\Users\Acer\source\repos\DailyUpdate\DailyUpdate.UI\DailyUpdateUI\dist\out-tsc\src\Model\AssignUser.model.js
C:\Users\Acer\source\repos\DailyUpdate\DailyUpdate.UI\DailyUpdateUI\dist\out-tsc\src\Model\AssignUser.model.js.map
C:\Users\Acer\source\repos\DailyUpdate\DailyUpdate.UI\DailyUpdateUI\dist\out-tsc\src\Services\assign-user.service.js
C:\Users\Acer\source\repos\DailyUpdate\DailyUpdate.UI\DailyUpdateUI\dist\out-tsc\src\Services\assign-user.service.js.map
C:\Users\Acer\source\repos\DailyUpdate\DailyUpdate.UI\DailyUpdateUI\dist\out-tsc\src\BackEnd\project\project.component.js
C:\Users\Acer\source\repos\DailyUpdate\DailyUpdate.UI\DailyUpdateUI\dist\out-tsc\src\BackEnd\project\project.component.js.map
C:\Users\Acer\source\repos\DailyUpdate\DailyUpdate.UI\DailyUpdateUI\dist\out-tsc\src\Model\Update.model.js
C:\Users\Acer\source\repos\DailyUpdate\DailyUpdate.UI\DailyUpdateUI\dist\out-tsc\src\Model\Update.model.js.map
C:\Users\Acer\source\repos\DailyUpdate\DailyUpdate.UI\DailyUpdateUI\dist\out-tsc\src\Services\update.service.js
C:\Users\Acer\source\repos\DailyUpdate\DailyUpdate.UI\DailyUpdateUI\dist\out-tsc\src\Services\update.service.js.map
C:\Users\Acer\source\repos\DailyUpdate\DailyUpdate.UI\DailyUpdateUI\dist\out-tsc\src\BackEnd\update\update.component.js
C:\Users\Acer\source\repos\DailyUpdate\DailyUpdate.UI\DailyUpdateUI\dist\out-tsc\src\BackEnd\update\update.component.js.map
C:\Users\Acer\source\repos\DailyUpdate\DailyUpdate.UI\DailyUpdateUI\dist\out-tsc\src\FrontEnd\f-update\f-update.component.js
C:\Users\Acer\source\repos\DailyUpdate\DailyUpdate.UI\DailyUpdateUI\dist\out-tsc\src\FrontEnd\f-update\f-update.component.js.map
C:\Users\Acer\source\repos\DailyUpdate\DailyUpdate.UI\DailyUpdateUI\dist\out-tsc\src\FrontEnd\fnavbar\fnavbar.component.js
C:\Users\Acer\source\repos\DailyUpdate\DailyUpdate.UI\DailyUpdateUI\dist\out-tsc\src\FrontEnd\fnavbar\fnavbar.component.js.map
C:\Users\Acer\source\repos\DailyUpdate\DailyUpdate.UI\DailyUpdateUI\dist\out-tsc\src\BackEnd\navbar\navbar.component.js
C:\Users\Acer\source\repos\DailyUpdate\DailyUpdate.UI\DailyUpdateUI\dist\out-tsc\src\BackEnd\navbar\navbar.component.js.map
C:\Users\Acer\source\repos\DailyUpdate\DailyUpdate.UI\DailyUpdateUI\dist\out-tsc\src\BackEnd\user\user.component.js
C:\Users\Acer\source\repos\DailyUpdate\DailyUpdate.UI\DailyUpdateUI\dist\out-tsc\src\BackEnd\user\user.component.js.map
C:\Users\Acer\source\repos\DailyUpdate\DailyUpdate.UI\DailyUpdateUI\dist\out-tsc\src\login\login.component.js
C:\Users\Acer\source\repos\DailyUpdate\DailyUpdate.UI\DailyUpdateUI\dist\out-tsc\src\login\login.component.js.map
C:\Users\Acer\source\repos\DailyUpdate\DailyUpdate.UI\DailyUpdateUI\dist\out-tsc\src\FrontEnd\personal-details\personal-details.component.js
C:\Users\Acer\source\repos\DailyUpdate\DailyUpdate.UI\DailyUpdateUI\dist\out-tsc\src\FrontEnd\personal-details\personal-details.component.js.map
C:\Users\Acer\source\repos\DailyUpdate\DailyUpdate.UI\DailyUpdateUI\dist\out-tsc\src\app\app.module.js
C:\Users\Acer\source\repos\DailyUpdate\DailyUpdate.UI\DailyUpdateUI\dist\out-tsc\src\app\app.module.js.map
C:\Users\Acer\source\repos\DailyUpdate\DailyUpdate.UI\DailyUpdateUI\dist\out-tsc\src\environments\environment.js
C:\Users\Acer\source\repos\DailyUpdate\DailyUpdate.UI\DailyUpdateUI\dist\out-tsc\src\environments\environment.js.map
C:\Users\Acer\source\repos\DailyUpdate\DailyUpdate.UI\DailyUpdateUI\dist\out-tsc\src\main.js
C:\Users\Acer\source\repos\DailyUpdate\DailyUpdate.UI\DailyUpdateUI\dist\out-tsc\src\main.js.map
C:\Users\Acer\source\repos\DailyUpdate\DailyUpdate.UI\DailyUpdateUI\dist\out-tsc\src\polyfills.js
C:\Users\Acer\source\repos\DailyUpdate\DailyUpdate.UI\DailyUpdateUI\dist\out-tsc\src\polyfills.js.map
C:\Users\Acer\source\repos\DailyUpdate\DailyUpdate.UI\DailyUpdateUI\dist\out-tsc\src\test.js
C:\Users\Acer\source\repos\DailyUpdate\DailyUpdate.UI\DailyUpdateUI\dist\out-tsc\src\test.js.map
C:\Users\Acer\source\repos\DailyUpdate\DailyUpdate.UI\DailyUpdateUI\dist\out-tsc\e2e\src\app.po.js
C:\Users\Acer\source\repos\DailyUpdate\DailyUpdate.UI\DailyUpdateUI\dist\out-tsc\e2e\src\app.po.js.map
C:\Users\Acer\source\repos\DailyUpdate\DailyUpdate.UI\DailyUpdateUI\dist\out-tsc\e2e\src\app.e2e-spec.js
C:\Users\Acer\source\repos\DailyUpdate\DailyUpdate.UI\DailyUpdateUI\dist\out-tsc\e2e\src\app.e2e-spec.js.map
C:\Users\Acer\source\repos\DailyUpdate\DailyUpdate.UI\DailyUpdateUI\dist\out-tsc\src\app\app.component.spec.js
C:\Users\Acer\source\repos\DailyUpdate\DailyUpdate.UI\DailyUpdateUI\dist\out-tsc\src\app\app.component.spec.js.map
C:\Users\Acer\source\repos\DailyUpdate\DailyUpdate.UI\DailyUpdateUI\dist\out-tsc\src\environments\environment.prod.js
C:\Users\Acer\source\repos\DailyUpdate\DailyUpdate.UI\DailyUpdateUI\dist\out-tsc\src\environments\environment.prod.js.map
C:\Users\Acer\source\repos\DailyUpdate\DailyUpdate.UI\DailyUpdateUI\dist\out-tsc\src\login\login.component.spec.js
C:\Users\Acer\source\repos\DailyUpdate\DailyUpdate.UI\DailyUpdateUI\dist\out-tsc\src\login\login.component.spec.js.map
C:\Users\Acer\source\repos\DailyUpdate\DailyUpdate.UI\DailyUpdateUI\dist\out-tsc\src\Services\assign-user.service.spec.js
C:\Users\Acer\source\repos\DailyUpdate\DailyUpdate.UI\DailyUpdateUI\dist\out-tsc\src\Services\assign-user.service.spec.js.map
C:\Users\Acer\source\repos\DailyUpdate\DailyUpdate.UI\DailyUpdateUI\dist\out-tsc\src\Services\project.service.spec.js
C:\Users\Acer\source\repos\DailyUpdate\DailyUpdate.UI\DailyUpdateUI\dist\out-tsc\src\Services\project.service.spec.js.map
C:\Users\Acer\source\repos\DailyUpdate\DailyUpdate.UI\DailyUpdateUI\dist\out-tsc\src\Services\update.service.spec.js
C:\Users\Acer\source\repos\DailyUpdate\DailyUpdate.UI\DailyUpdateUI\dist\out-tsc\src\Services\update.service.spec.js.map
C:\Users\Acer\source\repos\DailyUpdate\DailyUpdate.UI\DailyUpdateUI\dist\out-tsc\src\Services\user.service.spec.js
C:\Users\Acer\source\repos\DailyUpdate\DailyUpdate.UI\DailyUpdateUI\dist\out-tsc\src\Services\user.service.spec.js.map
C:\Users\Acer\source\repos\DailyUpdate\DailyUpdate.UI\DailyUpdateUI\dist\out-tsc\src\BackEnd\dashboard\dashboard.component.spec.js
C:\Users\Acer\source\repos\DailyUpdate\DailyUpdate.UI\DailyUpdateUI\dist\out-tsc\src\BackEnd\dashboard\dashboard.component.spec.js.map
C:\Users\Acer\source\repos\DailyUpdate\DailyUpdate.UI\DailyUpdateUI\dist\out-tsc\src\BackEnd\navbar\navbar.component.spec.js
C:\Users\Acer\source\repos\DailyUpdate\DailyUpdate.UI\DailyUpdateUI\dist\out-tsc\src\BackEnd\navbar\navbar.component.spec.js.map
C:\Users\Acer\source\repos\DailyUpdate\DailyUpdate.UI\DailyUpdateUI\dist\out-tsc\src\BackEnd\project\project.component.spec.js
C:\Users\Acer\source\repos\DailyUpdate\DailyUpdate.UI\DailyUpdateUI\dist\out-tsc\src\BackEnd\project\project.component.spec.js.map
C:\Users\Acer\source\repos\DailyUpdate\DailyUpdate.UI\DailyUpdateUI\dist\out-tsc\src\BackEnd\update\update.component.spec.js
C:\Users\Acer\source\repos\DailyUpdate\DailyUpdate.UI\DailyUpdateUI\dist\out-tsc\src\BackEnd\update\update.component.spec.js.map
C:\Users\Acer\source\repos\DailyUpdate\DailyUpdate.UI\DailyUpdateUI\dist\out-tsc\src\BackEnd\user\user.component.spec.js
C:\Users\Acer\source\repos\DailyUpdate\DailyUpdate.UI\DailyUpdateUI\dist\out-tsc\src\BackEnd\user\user.component.spec.js.map
C:\Users\Acer\source\repos\DailyUpdate\DailyUpdate.UI\DailyUpdateUI\dist\out-tsc\src\FrontEnd\f-update\f-update.component.spec.js
C:\Users\Acer\source\repos\DailyUpdate\DailyUpdate.UI\DailyUpdateUI\dist\out-tsc\src\FrontEnd\f-update\f-update.component.spec.js.map
C:\Users\Acer\source\repos\DailyUpdate\DailyUpdate.UI\DailyUpdateUI\dist\out-tsc\src\FrontEnd\fnavbar\fnavbar.component.spec.js
C:\Users\Acer\source\repos\DailyUpdate\DailyUpdate.UI\DailyUpdateUI\dist\out-tsc\src\FrontEnd\fnavbar\fnavbar.component.spec.js.map
C:\Users\Acer\source\repos\DailyUpdate\DailyUpdate.UI\DailyUpdateUI\dist\out-tsc\src\FrontEnd\personal-details\personal-details.component.spec.js
C:\Users\Acer\source\repos\DailyUpdate\DailyUpdate.UI\DailyUpdateUI\dist\out-tsc\src\FrontEnd\personal-details\personal-details.component.spec.js.map
